# Blender v2.70 (sub 0) OBJ File: 'card.blend'
# www.blender.org
o NGon001
v 0.505841 -0.045377 -5.611663
v 0.491311 -0.087443 -5.466540
v 0.326326 -0.045377 -5.680164
v 0.444111 -0.045377 -5.639655
v 0.133848 -0.045377 -5.717213
v -0.063867 -0.045377 -5.722810
v -0.259095 -0.045377 -5.696958
v -0.133847 -0.045377 -5.717212
v -0.128736 -0.087443 -5.568818
v -0.444111 -0.045377 -5.639655
v -0.505840 -0.045377 -5.611663
v -0.491311 -0.087443 -5.466540
v -5.180696 -0.045377 -2.215183
v -5.047165 -0.087443 -2.156519
v -5.301316 -0.045377 -2.065621
v -5.226393 -0.045377 -2.165124
v -5.396031 -0.045377 -1.894013
v -5.256478 -0.087443 -1.843296
v -5.462453 -0.045377 -1.707705
v -5.498194 -0.045377 -1.514043
v -5.500868 -0.045377 -1.320375
v -5.493322 -0.045377 -1.253017
v -5.350812 -0.087443 -1.221990
v -3.707685 -0.045377 4.242605
v -3.610630 -0.087443 4.133738
v -3.674198 -0.045377 4.301535
v -3.468777 -0.045377 4.546648
v -3.558200 -0.045377 4.456643
v -3.377418 -0.087443 4.429598
v -3.415453 -0.045377 4.592310
v -3.252208 -0.045377 4.703995
v -2.955612 -0.045377 4.823617
v -3.074713 -0.045377 4.787157
v -2.889220 -0.045377 4.837256
v -2.815672 -0.087443 4.711309
v 2.889220 -0.045377 4.837256
v 2.815673 -0.087443 4.711308
v 3.074714 -0.045377 4.787158
v 2.955613 -0.045377 4.823618
v 3.252208 -0.045377 4.703996
v 3.415454 -0.045377 4.592310
v 3.558201 -0.045377 4.456643
v 3.468778 -0.045377 4.546648
v 3.377419 -0.087443 4.429598
v 3.674199 -0.045377 4.301535
v 3.707687 -0.045377 4.242605
v 3.610631 -0.087443 4.133738
v 5.493321 -0.045377 -1.253017
v 5.350811 -0.087443 -1.221990
v 5.500867 -0.045377 -1.320375
v 5.478753 -0.045377 -1.639420
v 5.498194 -0.045377 -1.514043
v 5.336042 -0.087443 -1.598424
v 5.462452 -0.045377 -1.707705
v 5.396030 -0.045377 -1.894013
v 5.226392 -0.045377 -2.165124
v 5.301315 -0.045377 -2.065621
v 5.180696 -0.045377 -2.215183
v 5.047164 -0.087443 -2.156519
v 0.491311 0.087090 -5.466540
v 0.505841 0.045023 -5.611663
v 0.444111 0.045023 -5.639655
v 0.326326 0.045023 -5.680164
v 0.133848 0.045023 -5.717213
v -0.063867 0.045023 -5.722811
v -0.128736 0.087090 -5.568818
v -0.133847 0.045023 -5.717212
v -0.259095 0.045023 -5.696958
v -0.444111 0.045023 -5.639655
v -0.491311 0.087090 -5.466540
v -0.505840 0.045023 -5.611663
v -5.047165 0.087090 -2.156519
v -5.180696 0.045023 -2.215183
v -5.226393 0.045023 -2.165124
v -5.301317 0.045023 -2.065621
v -5.396031 0.045023 -1.894013
v -5.462452 0.045023 -1.707705
v -5.336042 0.087090 -1.598424
v -5.478753 0.045023 -1.639420
v -5.498194 0.045023 -1.514043
v -5.500868 0.045023 -1.320375
v -5.350812 0.087090 -1.221990
v -5.493322 0.045023 -1.253017
v -3.610630 0.087090 4.133738
v -3.707686 0.045023 4.242605
v -3.674198 0.045023 4.301535
v -3.558200 0.045023 4.456643
v -3.415453 0.045023 4.592310
v -3.169118 0.087090 4.580936
v -3.252208 0.045023 4.703995
v -3.074713 0.045023 4.787157
v -2.955613 0.045023 4.823617
v -2.815672 0.087090 4.711309
v -2.889219 0.045023 4.837256
v 2.815673 0.087090 4.711308
v 2.889220 0.045023 4.837256
v 2.955613 0.045023 4.823618
v 3.074714 0.045023 4.787158
v 3.169119 0.087090 4.580937
v 3.252208 0.045023 4.703996
v 3.415454 0.045023 4.592310
v 3.558201 0.045023 4.456643
v 3.674199 0.045023 4.301534
v 3.610631 0.087090 4.133738
v 3.707687 0.045023 4.242605
v 5.350811 0.087090 -1.221990
v 5.493321 0.045023 -1.253017
v 5.500867 0.045023 -1.320375
v 5.336042 0.087090 -1.598424
v 5.498194 0.045023 -1.514043
v 5.478753 0.045023 -1.639420
v 5.462452 0.045023 -1.707705
v 5.396030 0.045023 -1.894013
v 5.301315 0.045023 -2.065621
v 5.226392 0.045023 -2.165124
v 5.047164 0.087090 -2.156519
v 5.180696 0.045023 -2.215183
vt -0.000079 0.580536
vt 0.000164 0.598142
vt 0.494194 0.980757
vt 0.512168 0.980248
vt 0.795655 0.032865
vt 0.810496 0.043019
vt 0.488297 0.966758
vt 0.459626 0.973197
vt 0.476446 0.978407
vt 0.000607 0.574412
vt 0.958833 0.656549
vt 0.970972 0.661882
vt 0.975127 0.657331
vt 0.529666 0.976880
vt 0.540374 0.973197
vt 0.990548 0.632684
vt 0.981938 0.648285
vt 0.013563 0.571591
vt 0.171761 0.084707
vt 0.768692 0.021991
vt 0.762656 0.020751
vt 0.828239 0.084707
vt 0.823473 0.055352
vt 0.834018 0.069453
vt 0.545986 0.970653
vt 0.755970 0.032201
vt 0.237344 0.020751
vt 0.779519 0.025305
vt 0.487832 0.980248
vt 0.837062 0.074810
vt 0.999393 0.574412
vt 0.807038 0.057811
vt 0.204345 0.032865
vt 0.220481 0.025305
vt 0.996587 0.615747
vt 0.454015 0.970653
vt 0.029028 0.661882
vt 0.998068 0.609540
vt 0.999836 0.598142
vt 1.000079 0.580536
vt 0.986437 0.571591
vt 0.001932 0.609540
vt 0.192962 0.057811
vt 0.184657 0.047170
vt 0.176527 0.055352
vt 0.231308 0.021991
vt 0.189504 0.043019
vt 0.244030 0.032201
vt 0.455335 0.957460
vt 0.041167 0.656549
vt 0.165982 0.069453
vt 0.788102 0.044053
vt 0.009452 0.632684
vt 0.018062 0.648285
vt 0.024873 0.657331
vt 0.003413 0.615747
vt 0.014905 0.605813
vt 0.544665 0.957460
vt 0.162938 0.074810
vt 0.211898 0.044053
vt 0.815343 0.047170
vt 0.985095 0.605813
vt 0.022138 0.628074
vn -0.804468 0.593036 0.033448
vn -0.800562 0.595813 -0.063570
vn -0.789392 -0.609058 -0.076357
vn -0.018464 0.596423 -0.802423
vn 0.090732 0.606677 -0.789727
vn 0.090732 -0.606708 -0.789697
vn 0.401624 0.588305 0.701804
vn 0.390759 -0.606708 0.692221
vn 0.486587 -0.596423 0.638325
vn -0.014527 -0.989441 -0.144078
vn -0.280404 -0.593036 -0.754753
vn -0.186926 -0.595813 -0.781030
vn -0.805811 -0.591083 0.035493
vn -0.800958 -0.574419 0.168645
vn -0.800958 0.574419 0.168645
vn 0.112735 -0.986267 -0.120457
vn 0.548875 -0.574419 -0.607227
vn 0.621998 -0.592303 -0.512101
vn 0.199866 -0.604327 -0.771233
vn 0.199866 0.604327 -0.771233
vn 0.294839 0.592303 -0.749809
vn 0.723014 -0.606708 -0.330332
vn 0.671712 -0.604327 -0.428419
vn 0.671712 0.604327 -0.428419
vn -0.162145 -0.986267 0.031068
vn -0.150578 -0.986175 0.068667
vn 0.202185 0.592303 0.779900
vn 0.087100 0.574419 0.813898
vn 0.087100 -0.574419 0.813898
vn 0.149449 0.986267 0.070162
vn 0.593738 0.609058 0.525773
vn 0.672781 0.591083 0.444899
vn 0.112735 0.986267 -0.120457
vn 0.548875 0.574419 -0.607227
vn 0.407910 0.574419 -0.709647
vn 0.020386 -0.986267 0.163701
vn -0.087100 -0.574419 0.813898
vn 0.288278 0.594562 0.750572
vn 0.202185 -0.592303 0.779900
vn -0.014527 0.989441 -0.144108
vn -0.095889 0.595386 -0.797662
vn -0.186926 0.595813 -0.781030
vn 0.747124 -0.574419 0.334361
vn 0.800958 -0.574419 0.168645
vn 0.800958 0.574419 0.168645
vn 0.096438 -0.989441 0.108036
vn -0.390759 -0.606708 0.692221
vn -0.291604 -0.604327 0.741417
vn -0.288278 0.594562 0.750572
vn 0.723014 0.606677 -0.330332
vn 0.768853 0.596423 -0.230384
vn -0.407910 0.574419 -0.709647
vn -0.407910 -0.574419 -0.709647
vn -0.548875 -0.574419 -0.607227
vn 0.788263 0.595386 -0.155278
vn 0.800562 0.595813 -0.063570
vn 0.800562 -0.595813 -0.063570
vn 0.804468 -0.593036 0.033448
vn 0.162206 -0.986175 0.032929
vn -0.794549 0.586993 -0.155095
vn -0.096438 -0.989441 0.108036
vn -0.551653 -0.587024 0.592517
vn -0.610309 -0.595813 0.521989
vn 0.610309 -0.595813 0.521989
vn 0.804468 0.593036 0.033448
vn 0.162206 0.986175 0.032929
vn -0.202185 -0.592303 0.779900
vn -0.202185 0.592303 0.779900
vn -0.401624 0.588305 0.701804
vn -0.498886 0.606677 0.618885
vn -0.486587 -0.596423 0.638325
vn -0.017670 0.986236 0.164220
vn 0.017670 0.986236 0.164220
vn -0.081454 0.986175 -0.144078
vn -0.110813 -0.986236 -0.122440
vn -0.672781 0.591083 0.444899
vn -0.670492 -0.593036 0.445753
vn 0.291604 -0.604327 0.741417
vn 0.407910 -0.574419 -0.709647
vn 0.294839 -0.592303 -0.749809
vn 0.150578 -0.986175 0.068667
vn -0.548875 0.574419 -0.607227
vn 0.074038 0.989319 0.125492
vn 0.621998 0.592303 -0.512101
vn -0.087100 0.574419 0.813898
vn -0.723014 0.606708 -0.330332
vn -0.671712 0.604327 -0.428419
vn -0.674398 -0.594562 -0.437757
vn -0.621998 -0.592303 -0.512101
vn -0.020386 -0.986267 0.163732
vn -0.737449 -0.588305 -0.331675
vn -0.767388 -0.606677 -0.207434
vn -0.149449 0.986267 0.070162
vn -0.162206 0.986175 0.032929
vn -0.768853 0.596423 -0.230384
vn -0.141545 0.989441 -0.030702
vn -0.280404 0.593036 -0.754753
vn 0.670492 -0.593036 0.445784
vn 0.079714 -0.986267 -0.144444
vn -0.747124 0.574419 0.334361
vn 0.747124 0.574419 0.334361
vn 0.079714 0.986267 -0.144444
vn -0.074038 0.989319 0.125492
vn -0.593738 0.609058 0.525773
vn -0.095889 -0.595386 -0.797662
vn -0.747124 -0.574419 0.334330
vn 0.551653 -0.587024 0.592517
vn -0.621998 0.592303 -0.512101
vn -0.018464 -0.596423 -0.802423
vn 0.498886 0.606677 0.618885
vn -0.081454 -0.986175 -0.144078
vn 0.768853 -0.596423 -0.230384
vn 0.141514 -0.989441 -0.030702
vn 0.788263 -0.595386 -0.155278
vn -0.133671 -0.989319 -0.057985
vn 0.141545 0.989441 -0.030702
vn -0.112735 0.986267 -0.120457
s 1
f 81/1/1 80/2/2 20/2/3
f 65/3/4 64/4/5 5/4/6
f 100/5/7 40/5/8 41/6/9
f 9/7/10 10/8/11 7/9/12
f 21/1/13 22/10/14 83/10/15
f 59/11/16 58/12/17 56/13/18
f 3/14/19 63/14/20 62/15/21
f 55/16/22 57/17/23 114/17/24
f 3/14/19 5/4/6 64/4/5
f 22/10/14 23/18/25 25/19/26
f 97/20/27 96/21/28 36/21/29
f 104/22/30 102/23/31 103/24/32
f 116/11/33 117/12/34 61/25/35
f 37/26/36 36/21/29 34/27/37
f 98/28/38 97/20/27 39/20/39
f 66/7/40 67/29/41 68/9/42
f 23/18/25 22/10/14 21/1/13
f 46/30/43 48/31/44 107/31/45
f 40/5/8 37/26/36 44/32/46
f 31/33/47 33/34/48 91/34/49
f 55/16/22 113/16/50 112/35/51
f 71/36/52 11/36/53 13/37/54
f 111/38/55 110/39/56 52/39/57
f 50/40/58 48/31/44 49/41/59
f 80/2/2 79/42/60 20/2/3
f 29/43/61 27/44/62 28/45/63
f 103/24/32 102/23/31 42/23/64
f 107/31/45 108/40/65 106/41/66
f 32/46/67 92/46/68 91/34/49
f 90/33/69 88/47/70 30/47/71
f 93/48/72 95/26/73 70/49/74
f 14/50/75 13/37/54 11/36/53
f 110/39/56 108/40/65 50/40/58
f 27/44/62 30/47/71 88/47/70
f 86/51/76 26/51/77 28/45/63
f 38/28/78 40/5/8 100/5/7
f 1/25/79 4/15/80 62/15/21
f 46/30/43 47/22/81 49/41/59
f 70/49/74 71/36/52 73/37/82
f 100/5/7 99/52/83 98/28/38
f 115/13/84 114/17/24 57/17/23
f 36/21/29 96/21/28 94/27/85
f 1/25/79 61/25/35 117/12/34
f 92/46/68 94/27/85 93/48/72
f 107/31/45 48/31/44 50/40/58
f 76/53/86 75/54/87 15/54/88
f 96/21/28 95/26/73 93/48/72
f 32/46/67 34/27/37 94/27/85
f 73/37/82 13/37/54 16/55/89
f 35/48/90 34/27/37 32/46/67
f 76/53/86 17/53/91 19/56/92
f 16/55/89 13/37/54 14/50/75
f 84/19/93 82/18/94 83/10/15
f 77/56/95 79/42/60 78/57/96
f 7/9/12 10/8/11 69/8/97
f 44/32/46 45/24/98 42/23/64
f 10/8/11 11/36/53 71/36/52
f 58/12/17 59/11/16 2/58/99
f 26/51/77 86/51/76 85/59/100
f 104/22/30 105/30/101 107/31/45
f 60/58/102 61/25/35 62/15/21
f 89/60/103 87/45/104 88/47/70
f 115/13/84 117/12/34 116/11/33
f 8/29/105 7/9/12 68/9/42
f 4/15/80 1/25/79 2/58/99
f 83/10/15 22/10/14 24/59/106
f 56/13/18 58/12/17 117/12/34
f 78/57/96 79/42/60 80/2/2
f 35/48/90 49/41/59 37/26/36
f 43/61/107 42/23/64 102/23/31
f 45/24/98 46/30/43 105/30/101
f 75/54/87 74/55/108 16/55/89
f 21/1/13 81/1/1 20/2/3
f 6/3/109 65/3/4 5/4/6
f 101/6/110 100/5/7 41/6/9
f 12/49/111 11/36/53 10/8/11
f 8/29/105 9/7/10 7/9/12
f 12/49/111 10/8/11 9/7/10
f 81/1/1 21/1/13 83/10/15
f 54/35/112 53/62/113 55/16/22
f 54/35/112 51/38/114 53/62/113
f 55/16/22 53/62/113 59/11/16
f 57/17/23 59/11/16 56/13/18
f 4/15/80 3/14/19 62/15/21
f 113/16/50 55/16/22 114/17/24
f 57/17/23 55/16/22 59/11/16
f 63/14/20 3/14/19 64/4/5
f 24/59/106 22/10/14 25/19/26
f 39/20/39 97/20/27 36/21/29
f 60/58/102 116/11/33 61/25/35
f 102/23/31 99/52/83 101/6/110
f 105/30/101 104/22/30 103/24/32
f 99/52/83 100/5/7 101/6/110
f 102/23/31 104/22/30 99/52/83
f 35/48/90 37/26/36 34/27/37
f 38/28/78 98/28/38 39/20/39
f 66/7/40 69/8/97 70/49/74
f 40/5/8 44/32/46 41/6/9
f 19/56/92 17/53/91 18/63/115
f 69/8/97 71/36/52 70/49/74
f 66/7/40 68/9/42 69/8/97
f 23/18/25 21/1/13 20/2/3
f 20/2/3 19/56/92 18/63/115
f 105/30/101 46/30/43 107/31/45
f 23/18/25 20/2/3 18/63/115
f 39/20/39 37/26/36 38/28/78
f 39/20/39 36/21/29 37/26/36
f 37/26/36 40/5/8 38/28/78
f 54/35/112 55/16/22 112/35/51
f 90/33/69 31/33/47 91/34/49
f 44/32/46 43/61/107 41/6/9
f 73/37/82 71/36/52 13/37/54
f 51/38/114 54/35/112 112/35/51
f 110/39/56 109/62/116 108/40/65
f 112/35/51 111/38/55 51/38/114
f 50/40/58 53/62/113 52/39/57
f 111/38/55 52/39/57 51/38/114
f 79/42/60 77/56/95 19/56/92
f 53/62/113 51/38/114 52/39/57
f 50/40/58 49/41/59 53/62/113
f 29/43/61 26/51/77 25/19/26
f 79/42/60 19/56/92 20/2/3
f 45/24/98 103/24/32 42/23/64
f 26/51/77 24/59/106 25/19/26
f 29/43/61 28/45/63 26/51/77
f 110/39/56 111/38/55 109/62/116
f 33/34/48 32/46/67 91/34/49
f 108/40/65 109/62/116 106/41/66
f 31/33/47 90/33/69 30/47/71
f 72/50/117 78/57/96 82/18/94
f 89/60/103 93/48/72 84/19/93
f 70/49/74 82/18/94 84/19/93
f 95/26/73 99/52/83 104/22/30
f 12/49/111 14/50/75 11/36/53
f 52/39/57 110/39/56 50/40/58
f 60/58/102 66/7/40 70/49/74
f 70/49/74 72/50/117 82/18/94
f 93/48/72 70/49/74 84/19/93
f 106/41/66 109/62/116 116/11/33
f 106/41/66 116/11/33 70/49/74
f 116/11/33 60/58/102 70/49/74
f 95/26/73 106/41/66 70/49/74
f 95/26/73 104/22/30 106/41/66
f 98/28/38 38/28/78 100/5/7
f 87/45/104 27/44/62 88/47/70
f 87/45/104 86/51/76 28/45/63
f 87/45/104 28/45/63 27/44/62
f 61/25/35 1/25/79 62/15/21
f 48/31/44 46/30/43 49/41/59
f 72/50/117 70/49/74 73/37/82
f 97/20/27 98/28/38 95/26/73
f 95/26/73 96/21/28 97/20/27
f 56/13/18 115/13/84 57/17/23
f 34/27/37 36/21/29 94/27/85
f 98/28/38 99/52/83 95/26/73
f 58/12/17 1/25/79 117/12/34
f 17/53/91 76/53/86 15/54/88
f 108/40/65 107/31/45 50/40/58
f 91/34/49 92/46/68 93/48/72
f 89/60/103 90/33/69 91/34/49
f 89/60/103 91/34/49 93/48/72
f 94/27/85 96/21/28 93/48/72
f 92/46/68 32/46/67 94/27/85
f 74/55/108 73/37/82 16/55/89
f 30/47/71 29/43/61 31/33/47
f 30/47/71 27/44/62 29/43/61
f 31/33/47 29/43/61 35/48/90
f 33/34/48 35/48/90 32/46/67
f 77/56/95 76/53/86 19/56/92
f 15/54/88 16/55/89 14/50/75
f 33/34/48 31/33/47 35/48/90
f 76/53/86 78/57/96 72/50/117
f 85/59/100 84/19/93 83/10/15
f 18/63/115 17/53/91 15/54/88
f 18/63/115 15/54/88 14/50/75
f 75/54/87 72/50/117 74/55/108
f 77/56/95 78/57/96 76/53/86
f 68/9/42 7/9/12 69/8/97
f 47/22/81 46/30/43 45/24/98
f 72/50/117 73/37/82 74/55/108
f 75/54/87 76/53/86 72/50/117
f 43/61/107 44/32/46 42/23/64
f 47/22/81 45/24/98 44/32/46
f 69/8/97 10/8/11 71/36/52
f 1/25/79 58/12/17 2/58/99
f 24/59/106 26/51/77 85/59/100
f 106/41/66 104/22/30 107/31/45
f 64/4/5 60/58/102 63/14/20
f 67/29/41 66/7/40 65/3/4
f 60/58/102 64/4/5 66/7/40
f 113/16/50 109/62/116 112/35/51
f 66/7/40 64/4/5 65/3/4
f 60/58/102 62/15/21 63/14/20
f 87/45/104 84/19/93 86/51/76
f 90/33/69 89/60/103 88/47/70
f 116/11/33 113/16/50 114/17/24
f 87/45/104 89/60/103 84/19/93
f 84/19/93 85/59/100 86/51/76
f 115/13/84 116/11/33 114/17/24
f 67/29/41 65/3/4 6/3/109
f 109/62/116 111/38/55 112/35/51
f 2/58/99 5/4/6 3/14/19
f 113/16/50 116/11/33 109/62/116
f 6/3/109 8/29/105 67/29/41
f 5/4/6 9/7/10 6/3/109
f 8/29/105 68/9/42 67/29/41
f 4/15/80 2/58/99 3/14/19
f 85/59/100 83/10/15 24/59/106
f 9/7/10 8/29/105 6/3/109
f 115/13/84 56/13/18 117/12/34
f 5/4/6 2/58/99 9/7/10
f 78/57/96 81/1/1 82/18/94
f 101/6/110 41/6/9 43/61/107
f 35/48/90 29/43/61 25/19/26
f 81/1/1 83/10/15 82/18/94
f 78/57/96 80/2/2 81/1/1
f 18/63/115 14/50/75 23/18/25
f 12/49/111 2/58/99 14/50/75
f 12/49/111 9/7/10 2/58/99
f 53/62/113 49/41/59 59/11/16
f 103/24/32 45/24/98 105/30/101
f 49/41/59 47/22/81 37/26/36
f 35/48/90 2/58/99 49/41/59
f 14/50/75 2/58/99 35/48/90
f 49/41/59 2/58/99 59/11/16
f 14/50/75 25/19/26 23/18/25
f 14/50/75 35/48/90 25/19/26
f 47/22/81 44/32/46 37/26/36
f 43/61/107 102/23/31 101/6/110
f 15/54/88 75/54/87 16/55/89
